===================== ITERACION 1 ===========================
--------------------
Solucion 1
Camino [[91], [52], [100], [81], [20], [26, 31], [41], [71], [37], [34, 33], [98], [10, 47, 99], [35], [59, 12], [45], [39, 8], [49], [79, 50], [73], [72, 87], [92], [1], [51], [70], [48], [76], [3], [89, 19], [23], [63, 29], [16], [62], [44], [66, 28], [82], [93], [67], [46], [68], [84], [24], [77], [17, 22, 55], [40], [4], [95], [38], [74], [14], [85, 64], [5], [97], [86], [78], [53], [7], [36, 90], [69], [42], [2, 11], [60], [65, 30], [96], [25], [21], [56], [61, 15, 9], [94], [58, 43], [13, 75], [18], [88], [57, 83], [54], [32, 27], [6], [80]]
Vehiculos 77
Tiempo total 6737.799901146712
--------------------
Solucion 2
Camino [[58, 94], [20], [57], [30, 29, 17], [14], [56], [45], [91], [89], [66], [83, 11], [78], [43], [23], [68, 5], [47, 50], [25, 35, 100], [75, 86], [76], [10], [16], [15], [99, 69], [92], [46, 40], [53], [90], [82], [64], [97, 79], [19, 81], [71], [63], [37], [3, 73], [59], [27, 85, 77], [72, 87, 55], [61], [49], [4], [42, 36, 26], [70], [41], [52], [32], [93, 21, 22], [18], [38], [95], [1], [98], [48], [7], [88], [6], [62, 28], [8], [13, 84], [39], [44], [74], [80], [9], [60], [54, 2], [24], [51, 31], [12], [33, 67], [96], [65], [34]]
Vehiculos 73
Tiempo total 6760.215167594786
--------------------
Solucion 3
Camino [[37], [28], [24], [43], [69], [57, 12], [61, 19], [6], [25], [62, 38], [13], [2], [94], [67], [17], [34, 33, 1], [83, 95], [32], [84], [44], [76], [65], [54, 42], [30], [7], [8, 88], [47, 50, 89], [97], [92, 98, 22, 55], [26], [14], [86, 59, 18], [58], [52], [51], [87, 79], [70, 16], [85], [36, 71], [78], [90], [100, 64], [48], [20], [66], [3], [35], [80], [21], [40], [91], [93, 72], [60], [46], [75], [68, 27], [10], [53], [82], [56, 73], [45, 5, 41], [15], [4], [81, 31, 29, 74], [96], [77], [49], [11], [9], [39], [23, 99], [63]]
Vehiculos 72
Tiempo total 6794.813430616364
--------------------
Solucion 4
Camino [[53], [15], [100], [39], [11], [23], [63, 9, 77], [88], [33], [54], [65], [61], [44], [83, 69], [24], [34, 67, 1], [6, 38], [42, 7], [28], [19], [2], [47, 84], [94], [62], [17], [57], [95], [76], [50], [30], [8, 32], [89, 97], [92, 98, 22, 55], [26], [14], [86, 59, 18], [58], [52], [51], [87, 79], [70, 16], [85], [36, 71], [43, 78], [90], [64], [48], [20], [66], [3], [35], [80], [21], [40], [91], [93, 72], [60], [46], [75], [68, 27], [37], [25], [10], [12, 82], [56, 73], [45, 5, 41, 4], [81, 31, 29, 74], [96], [99], [49], [13]]
Vehiculos 71
Tiempo total 6817.866643695536
f1=[77, 73, 72, 71];
f2=[6737.799901146712, 6760.215167594786, 6794.813430616364, 6817.866643695536];
===================== ITERACION 2 ===========================
--------------------
Solucion 1
Camino [[93, 28], [99], [53], [27], [59, 18, 13], [9, 14], [38, 61, 90], [65], [74], [87], [36], [48], [80], [52], [37], [43], [68], [77, 21, 55], [29], [1], [66], [25], [54, 72], [2], [73, 88], [7, 5], [16], [71], [96], [3, 45, 94], [47], [46], [15, 22], [42], [20], [69], [81], [6], [91, 92], [56, 95], [84, 33], [70], [17], [26, 30], [31], [35], [83], [49, 78], [40, 8], [97], [23, 76, 51], [4, 57], [60], [39], [11], [50], [100], [98, 64], [63], [58], [34], [62], [67], [24, 75], [85], [19], [44], [12], [86], [32], [82], [89], [41], [10], [79]]
Vehiculos 75
Tiempo total 6622.076994610279
--------------------
Solucion 2
Camino [[93, 23, 57], [24, 64], [59, 18, 13], [9], [43, 49], [68], [60], [80, 83, 61, 3], [14, 41], [71], [77], [86], [56, 31], [69], [22], [38, 78, 74], [62, 99], [66], [81, 42], [25, 34], [8], [7], [89, 4], [100], [98], [70, 45], [44], [40], [17], [97], [95], [96, 39], [76, 21], [33], [55], [65, 47, 35], [72], [82, 2], [26], [92], [5, 50], [28], [58, 32], [29, 67], [52], [85], [73, 88], [63], [91], [79], [6, 16], [1, 84], [94], [46], [10], [15], [51], [36, 20], [11, 75], [90], [19], [87, 12], [27, 30], [54], [48, 37], [53]]
Vehiculos 66
Tiempo total 6722.025276989646
--------------------
Solucion 3
Camino [[93, 23, 57], [24], [11], [59, 18, 13], [9, 14], [38, 61, 90, 74], [50], [65], [87], [53], [85], [75], [64], [32], [34], [2, 12], [54], [10], [77], [48, 99], [68], [19, 46], [58, 78], [15], [20], [79], [92], [30, 28, 37], [42], [80], [26, 55], [21], [52], [25], [44], [45], [7], [98], [36], [56], [66], [70, 69, 41], [27], [81], [51], [60], [43, 49], [47, 22], [95], [86], [71], [3], [1, 73, 97], [39], [29, 31], [33, 76, 96], [100], [91, 63], [4], [94], [67, 88], [16, 8, 35], [89], [82, 83, 6], [17], [5], [62], [84, 40], [72]]
Vehiculos 69
Tiempo total 6689.994216606735
f1=[75, 66, 69];
f2=[6622.076994610279, 6722.025276989646, 6689.994216606735];
===================== ITERACION 3 ===========================
--------------------
Solucion 1
Camino [[83], [78, 15], [81], [1, 84], [73, 22], [58], [40, 39], [98], [16, 47, 86], [6], [48, 87], [9, 14], [61, 64], [75], [20], [76, 53, 24], [10], [77], [54], [38], [70], [36], [85], [82], [95], [80], [17, 37], [28], [91, 33, 51, 66], [5], [19], [59], [7], [67, 21], [43], [68, 42], [89], [32], [41], [90], [35], [72], [93], [13], [45], [11], [69], [96], [8], [92, 63], [29], [65], [23], [79], [46], [3, 44], [18], [25], [27], [56], [30, 31, 74], [88], [100, 52, 99], [2], [62], [97], [94], [71], [4, 57, 55], [12], [50], [60, 34, 26], [49]]
Vehiculos 73
Tiempo total 6736.384048143827
--------------------
Solucion 2
Camino [[83], [78, 15], [81], [1, 84], [30, 27], [22], [36], [58], [40, 39], [98], [16, 47, 73], [86], [6], [48, 87], [91], [61], [79], [26], [9, 18], [85], [17], [19], [55], [90], [51], [11], [4], [32, 28], [42], [50], [94, 21], [13], [60], [53], [24], [54], [68], [59], [92], [38], [88, 64], [100], [74], [70, 52], [37], [62], [41], [95, 31], [71], [2, 45], [46], [43], [93], [57], [69], [7], [82], [65], [3], [35], [12], [56, 44], [97], [76, 23, 96], [8, 5, 89], [49, 67], [80], [29], [14, 75, 10], [66], [34], [63], [72], [20], [25], [33], [77, 99]]
Vehiculos 77
Tiempo total 6624.679183157926
--------------------
Solucion 3
Camino [[13], [79, 57], [43], [47], [33, 28], [2], [92, 11], [85, 86], [35], [3, 40], [34], [89], [52, 59], [93, 88], [30], [100], [21], [27], [65], [81], [10], [96, 16, 56], [14], [19], [82], [66], [24], [74, 12], [64], [45], [97], [49], [62, 63], [7], [60, 75, 20], [9], [58], [36], [94], [91], [4], [55], [77, 23], [39, 78], [42], [15], [83], [46], [67], [48], [18, 53], [51, 71], [1, 44], [6], [37], [95], [54, 98, 50], [68], [87], [72], [25, 26], [5, 73], [22], [32, 31, 29], [38], [17], [41], [69], [76], [80], [84, 61], [99], [70], [8, 90]]
Vehiculos 74
Tiempo total 6729.962513030761
--------------------
Solucion 4
Camino [[83], [78, 15], [23], [63], [13], [17], [91, 31, 74, 58], [40, 39], [98], [16, 47, 73], [86], [6], [48, 87], [61], [77], [72, 62], [32, 28], [2], [80], [71], [85], [26], [68], [9], [67, 64], [25], [41], [97], [100], [12], [10, 19, 54], [45], [60], [79], [53], [93], [35], [11], [37, 8], [44], [24], [18], [89], [75, 96], [65], [92], [57], [90], [34], [50], [55, 5, 20], [51, 29], [46], [56], [99], [21, 76, 49], [70], [38], [52, 7], [69], [33, 43], [66, 59], [88], [95], [42], [4], [82], [3], [14, 94], [84], [81], [22], [27, 1], [36], [30]]
Vehiculos 75
Tiempo total 6704.038326918694
--------------------
Solucion 5
Camino [[4], [19, 53, 56], [15, 18], [85, 46, 93], [3], [80, 27], [45, 9], [17, 37], [35, 90], [66], [76], [64], [78, 2], [88], [20], [84], [69, 21], [34], [6, 5], [14, 75], [98], [40], [57], [38, 8], [81, 23], [48], [59, 11], [51], [94, 82, 22], [41], [1], [26], [100, 52], [36], [25, 43], [49], [31], [50], [79, 86, 89], [96], [71], [77], [60], [92], [30], [97, 32], [91], [62], [47], [44, 42], [70], [13], [16], [10], [58], [61], [63, 33], [99], [54], [74], [68], [12], [73], [7], [67], [55, 83], [28, 29], [24], [72, 39], [65, 95, 87]]
Vehiculos 70
Tiempo total 6850.220909578288
--------------------
Solucion 6
Camino [[56, 63], [57], [74], [82, 47], [54, 19], [12], [69], [22], [17], [13], [86], [9, 21, 18], [55], [35, 26], [20, 41], [83], [5], [39], [48, 99], [59, 79], [87, 73, 96], [34, 10], [33], [71, 27], [6], [90], [51], [76, 46], [43], [94], [91], [64], [100], [24], [7], [14], [95], [40], [80], [31], [23], [50, 62], [4], [3], [75], [36], [38, 78], [2, 11], [52], [37], [98], [77], [70], [30, 49], [93], [89], [92, 28, 85, 66], [72, 29, 60], [65], [81], [8], [42], [84], [45], [25], [1, 44], [67], [97], [88], [68], [61, 16, 53, 58], [15, 32]]
Vehiculos 72
Tiempo total 6816.387212950463
f1=[73, 77, 74, 75, 70, 72];
f2=[6736.384048143827, 6624.679183157926, 6729.962513030761, 6704.038326918694, 6850.220909578288, 6816.387212950463];
===================== ITERACION 4 ===========================
--------------------
Solucion 1
Camino [[94], [80], [54], [48, 99], [68, 45], [85], [55, 47], [74, 23, 10], [32], [37], [58], [49], [7], [65], [36], [77], [81], [87], [9], [16, 11, 79], [83], [22], [56], [30, 33], [18], [67], [52], [34], [6], [69], [78, 41], [59], [82], [98], [28, 31], [46, 88], [1, 38], [50, 71], [86, 76, 51], [43], [24], [44], [70], [91], [8, 2], [13], [93], [66], [40], [42], [26], [21], [5], [19], [12], [35], [29, 27], [96, 39], [97], [64], [61], [95, 63], [4, 57, 89], [60], [90, 72], [92], [62], [14], [17], [53], [100], [20, 75], [3], [25], [15, 84], [73]]
Vehiculos 76
Tiempo total 6589.220509520179
--------------------
Solucion 2
Camino [[84], [25], [15], [73, 99], [68, 45], [80], [85], [55, 47], [74, 23, 10], [32], [37], [58], [49], [7], [65], [36], [77], [81], [87], [9], [16, 11, 79], [83], [22], [56], [30, 33], [18], [67], [52], [34], [6], [69], [78, 41], [59], [82], [98], [28, 31], [46, 88], [1, 38], [50, 71], [86, 76, 51], [43], [24], [44], [70], [91], [8, 2], [13], [48], [93], [66], [40], [42], [26], [21], [54], [5], [19], [94, 12, 35], [29, 27], [96, 39], [97], [64], [61], [95, 63], [4, 57, 89], [60], [90, 72], [92], [62], [14], [17], [53], [100], [20, 75], [3]]
Vehiculos 75
Tiempo total 6600.1247069047095
--------------------
Solucion 3
Camino [[94, 95], [89], [73, 99], [68, 45], [86, 12], [9, 41], [42, 39, 8], [97], [13], [26], [54, 19], [3, 61], [37], [23], [29, 49], [14, 75], [24, 6], [27], [56, 52], [40], [31], [15], [35, 44], [34], [77, 84], [82], [92, 28], [64, 38, 25], [62], [7], [65], [93], [20], [76], [2], [53], [90], [22], [30], [63, 33], [81, 69, 67, 17], [83, 98], [59], [32], [43, 71], [91], [51], [16], [57, 88], [96, 11], [4, 5], [21], [72], [100], [1, 50], [10, 18], [46], [74], [70], [66], [36], [78], [58], [60, 47, 79], [85, 87, 55], [48], [80]]
Vehiculos 67
Tiempo total 6765.097423356707
--------------------
Solucion 4
Camino [[94, 95, 78], [5], [99], [68, 45], [86, 12], [9, 41], [42, 71], [1], [10], [21, 26], [54], [63, 19], [60], [87, 11, 3], [90], [53, 75], [65], [89], [74, 34], [22, 67], [83, 62, 76, 13], [91], [56], [30, 33], [27], [52], [6], [69], [96, 31, 29], [14], [44], [98], [57], [38], [70], [51], [24], [82], [93], [66], [32, 49], [72], [28, 17], [2], [48], [23], [47], [100], [4], [80], [35], [92], [36], [37], [55], [79, 84, 77], [40], [18], [20, 64], [58, 46], [81], [97], [25, 85], [8, 16], [43], [59, 50], [61, 39], [7], [73, 15], [88]]
Vehiculos 70
Tiempo total 6610.9510943934465
f1=[76, 75, 67, 70];
f2=[6589.220509520179, 6600.1247069047095, 6765.097423356707, 6610.9510943934465];
===================== ITERACION 5 ===========================
--------------------
Solucion 1
Camino [[90, 36], [80], [7], [26, 28, 43], [88, 19, 55], [63, 29, 35], [71, 62], [6, 44], [84], [81, 95], [89], [70], [61], [87], [42, 85], [21], [50], [65], [82], [74, 15, 56], [51], [83, 30], [53], [100], [23], [98, 47, 11], [60], [37], [18], [75, 1], [68, 72], [91], [16, 99], [93], [8], [92], [64], [45], [4], [14], [69], [79], [54], [32, 33], [48], [24], [73], [9], [76], [31], [39], [86], [10], [22], [57], [66], [38], [27, 20], [40], [59, 94], [12], [25], [2], [17], [96, 52], [49], [58, 78], [34, 67], [77], [46], [97, 3], [41], [5], [13]]
Vehiculos 74
Tiempo total 6805.690907494569
--------------------
Solucion 2
Camino [[90, 36], [80], [7], [26, 28, 43], [88, 19, 55], [35], [63, 29], [71, 62], [6, 44], [49], [84], [81, 95], [89], [70], [61], [87], [42], [40], [52, 47, 12], [54, 82], [65], [72], [77, 23], [78], [96, 83], [45], [15], [41], [3], [86], [66], [14], [76], [1], [92], [46], [59], [58], [39], [21], [24], [13], [20], [10], [31, 33], [34, 51], [93], [85], [48, 75], [79, 22], [91], [4, 5], [38, 53], [99], [68], [32], [37], [98], [25], [11], [50], [74], [17], [64], [100], [73], [69], [16], [57, 8], [2], [97], [67, 27, 30, 60], [56], [18, 9], [94]]
Vehiculos 75
Tiempo total 6660.430416254323
f1=[74, 75];
f2=[6805.690907494569, 6660.430416254323];
